#t,A
0,0
0.3482598786157591,1
0.6742543699057064,0
0.8592584351306598,1
2.316538469398437,0
4.878428242661521,1
5.86430389666207,2
6.872752481968738,1
6.938017769094368,0
7.844037921732612,1
10.45034599051568,2
14.56690109332273,3
16.15576944425838,2
18.00932502723687,3
19.64279228879468,4
19.64350966262281,5
20.02500179249852,4
20.35165383550115,5
20.60886470221925,4
21.07957421834168,3
22.06296080342001,2
22.70399956139433,1
23.92495868129325,0
26.44735232659846,1
26.73206461883521,0
32.05758905131445,1
32.91420625953504,2
34.56335300506257,1
34.71838300402749,2
37.46458188880916,3
38.08981191734374,4
39.04601792970036,3
39.12834601400733,2
40.4501052938355,1
41.75714191820872,0
43.0939130525088,1
43.93638218428086,2
44.76274630040943,1
44.85834673243379,0
47.37384366199356,1
47.96893726505118,2
48.3431051940332,3
48.99969960807103,2
49.18699218795687,3
50.36633000888749,2
51.41512358095105,1
51.47446715634572,2
51.89407575443433,1
52.9900507351599,0
54.83046418063585,1
55.33643475528707,0
56.79402220095347,1
56.86205909785087,0
60.68774478871561,1
61.28054491495745,2
61.75923176013849,3
61.95186841399705,4
62.48861612461623,5
63.44507319031216,6
63.73816778131344,5
64.75203679545025,4
66.26628055996383,5
66.66759531102304,4
66.67783916857063,3
66.98115673933414,4
67.17314847881823,3
68.15205264790001,4
68.51006476262778,5
69.58510111719097,4
70.96886745237606,3
72.41468145034604,2
75.01123767588754,1
78.9397508566244,2
80.67582594505403,3
80.85654577016687,2
81.27728140201785,1
81.87345979675767,0
86.61346512673998,1
87.4848285514211,2
90.14542665809556,3
90.76418310761518,2
91.32049675393408,1
95.264081840318,2
95.26408826925839,3
95.35735519341891,4
95.35882414439044,5
95.43804798746611,6
98.17897475304461,5
98.47672189163082,6
99.38332122133603,5
99.43531560951513,4
100.1180937927109,3
100.5546621346286,2
100.9295193289371,3
101.4362032710096,2
102.625960432179,1
103.3592445370136,0
103.9404591068305,1
108.3943965029781,0
108.7592671287005,1
108.939945735329,0
108.9815063216547,1
109.117009142174,0
109.9272984573728,1
112.3380770856676,0
112.5735084736446,1
113.1484868847623,2
113.6113485533202,3
113.8959802909366,4
114.6375639161891,5
116.124145219044,4
117.1225747351313,3
117.6601750674241,2
118.9329907070507,1
119.372351306819,2
120.1242226292401,1
120.2006122337204,2
121.2902118815509,1
122.4015835277628,2
123.4659597512251,1
123.7091992308792,2
124.1015369112433,3
124.6854923679651,4
124.9118622472695,5
125.1833480073218,6
125.6243122984023,5
125.8498090935986,4
126.555206844708,5
126.838500100195,4
127.0476415269199,5
127.2193631155956,6
127.2605572336781,5
127.5039735648533,6
127.819115183261,7
128.416965918862,6
128.6053136976171,7
129.5812003574383,6
129.8564251195302,5
130.0882138253712,4
130.2574823243788,5
130.8916239378995,6
130.8995041085822,7
130.9837164369303,6
131.8188386945754,5
131.8429774573376,4
132.0216758026257,3
133.7103016242653,2
134.6678521043424,1
134.7460316032142,0
135.0432239198879,1
135.3513627243064,2
136.5644151155675,1
136.6906859299356,0
138.0844183993092,1
140.5050831517586,2
140.6505957932928,3
141.2654750851459,2
141.9667000102632,3
143.336668769371,2
143.6547409336024,3
144.0592670325006,2
144.2358447931673,1
146.5355869564671,2
147.2316875292618,3
148.8147076561596,4
149.5643904022289,3
149.6411722281196,2
149.8193092347559,1
150.7540149985643,2
151.6845893582617,1
152.346095196246,2
154.2350487168009,3
156.0166725852798,2
157.0283781868208,3
157.9119557564925,4
158.4787584661368,3
158.9096307524898,4
159.1879082779113,3
159.7628002939279,4
159.8457260534163,3
160.3723907888839,4
160.7618468283592,3
160.9109692462884,4
161.8504678065397,5
162.0308036627388,4
162.0409845887496,3
162.1274445982158,4
162.7205633741164,5
162.8601419468572,4
163.6769893575543,5
163.7595080321115,4
165.7679246680251,3
165.7788249011032,2
167.3352770846284,3
167.4511301251066,4
168.9891313706106,3
169.9476217715322,2
170.1594603300595,3
172.5322704019597,4
173.0532752220307,3
173.3477223131704,2
175.475419402025,1
176.2048642839667,2
176.7239820986058,3
177.6758133189862,2
178.4169232306559,3
178.8127156263716,2
179.2924861886545,1
181.2310254312727,0
186.5469699058701,1
186.6527536762421,2
187.3831182016501,3
187.5353017615057,4
188.221621006243,3
189.0747284928059,2
189.4915386384223,3
190.577023711795,2
191.0454859564411,1
192.6150157506778,2
194.2344000233956,1
197.180677307268,0
197.6718077251565,1
199.8153779504187,2
200.9684737816083,3
202.1407578578744,4
202.5604397550887,5
202.8964802008933,6
203.3799898284596,5
204.0577650690605,4
204.9546745220094,3
205.4295818948667,2
205.8064794230264,1
206.28615095024,2
206.7232784992582,3
207.2267258671852,2
207.7072700106394,1
208.5829854279857,2
209.5986702566385,1
209.8930375671557,0
213.6492964437858,1
217.3236451665878,0
220.6703566894494,1
221.1453498119177,2
227.9348958498852,3
228.8842244927945,4
229.1659299635789,3
230.5326243339832,4
230.8022609045325,3
231.142829921072,4
231.2242643069626,5
232.2817633640067,4
232.4068211136614,3
232.487411390991,4
233.1074661696528,3
233.2198658609429,2
233.522378183096,1
235.4639871353445,0
236.6544209851169,1
237.5936162609248,2
237.6564185143761,1
237.930584507313,2
238.350350016901,1
238.4387476306748,2
238.5730686127977,1
239.1727700037054,0
239.6814671465333,1
241.4633613972356,2
242.2171842545055,3
242.4002214436918,2
242.5360167227591,1
243.716765074775,2
244.2327724217447,1
245.0579228701729,2
245.6043385300442,3
245.8886387625314,2
246.0718297853561,1
248.9831469786114,2
249.6558073999603,3
249.8200980300341,4
250.120068530601,3
251.6705221293347,2
253.0687573431074,3
256.3071871770901,2
256.8627989236392,1
257.5829499433207,2
258.3224313187012,1
262.1023241992306,2
262.5474146262432,1
264.5505722294625,2
265.0122218002469,1
265.4174148452703,2
266.2416693923542,1
266.3063291834474,0
266.5190820733214,1
267.982955197021,2
269.5010176718621,3
269.542203625975,2
269.6651423990023,1
271.9239365754412,2
272.1721108704858,1
272.3055265929086,2
272.5778440485532,1
274.0486239050668,2
274.6270424664079,1
275.2597722789287,2
275.9979986704603,3
276.3378639152676,2
277.8952239260252,1
278.0879235790978,2
279.0726113607958,3
279.421532050387,2
279.8122751155405,1
283.5890553206781,2
284.1624348799534,3
287.3368544591323,4
290.4717906783183,3
290.8785511099521,2
290.9982393176206,1
293.3370260206711,2
294.0550383904217,1
294.6521536376671,0
298.3764782646479,1
298.543587150541,2
298.6495797746685,1
299.6399075694787,2
299.6947434552376,3
299.8101363251509,2
300.1404944391621,1
302.3971073332497,2
304.185879165638,3
304.5604431846781,4
305.9378938373758,5
305.9690571166406,6
306.8827781419852,7
307.2261203262507,6
307.2704154082821,7
307.4870337159477,8
307.8598533227851,7
308.228196610664,6
308.9333493337938,5
309.2584182578213,6
310.9386904441568,5
311.0563551648729,4
311.7441879750257,3
314.4110240837938,2
316.015738797718,1
316.4917108576839,2
316.6089826283715,1
318.0415949145608,2
318.3072531047214,1
318.7852733632763,0
318.9867112260033,1
319.3658880047427,2
319.57738627956,3
319.997987991149,4
321.5234201682126,5
322.3291219802444,6
322.5936858536487,7
322.645701843845,6
324.0867056639848,5
324.5193033177705,6
324.7856590032818,7
325.0242602462474,6
325.1262071357831,5
325.4927563436727,4
325.7031137795603,5
326.4637739697831,4
326.8768212900693,5
326.9173582608766,4
327.9715365810961,3
328.702600886941,4
328.9598035721846,3
329.6105402789237,4
329.8452959389418,5
330.7249151959492,4
331.627823828075,3
334.9271321314141,2
335.0868184126886,1
336.59992185713,0
337.8816758740569,1
339.7289472160155,2
342.3430200547037,1
342.4986790717663,2
343.131610633093,1
343.1874895142039,0
345.3219525572031,1
349.489275758025,2
354.7724674895375,3
355.7548461514004,2
355.9531188017788,1
356.9670097780036,2
358.6225777667657,3
358.6863486509213,4
360.3343870575781,5
360.5290064047239,4
362.113459414173,3
362.2271997526566,4
362.7221651074858,3
362.9234972760025,4
363.2882453790684,3
363.5251103001742,2
365.8643166360162,1
365.9377203083073,2
367.2290807841264,3
367.3979117000994,4
367.5926124760409,5
368.5941710170643,4
368.7763732029976,5
368.7872715643415,4
369.5034658132574,3
370.1307742335258,2
370.5553783785541,3
370.9633829392711,4
372.6367425574185,3
374.227218415358,2
376.3947567404843,1
377.1154401701954,2
377.5184200444045,1
379.0699557957556,0
379.5973514788063,1
383.9483167208166,2
384.8663592425805,3
385.500468405247,4
386.2850379644256,3
390.4569707214222,2
392.5266846793772,3
394.5064788760921,2
394.747363483798,1
394.8727792240063,0
400.4123980258728,1
401.2662813698117,2
401.3411495596677,3
402.0985574850785,2
402.5473329452835,1
403.3703636024941,2
403.5658605451065,1
403.6747900783753,2
403.9114701869886,3
404.6815732423095,4
404.8237356715398,3
405.0567910153634,2
405.2201672429279,1
405.6685244960571,2
406.3299045033033,1
407.2477126914577,2
407.6454466143038,3
407.8692754126882,2
409.8425509459412,3
411.1466803871952,2
411.3159500056455,1
413.5728594252365,0
415.8960304011158,1
416.0537586796146,2
416.7881922535516,3
418.0768479837042,4
418.3562433033345,3
419.5606028346351,2
419.8110369931042,1
422.4124950468951,2
422.9905163138324,1
423.1709774027785,2
423.5655084089577,1
423.8098502722606,0
424.3240242400316,1
425.0266148530595,2
425.2961115125387,1
426.9731287980173,2
427.1009522739351,3
428.477307552584,4
429.0200337329487,3
429.3677154348197,4
430.1155443806351,3
430.5141347463628,4
430.6580903346612,3
431.3935757118971,4
432.0141081041056,5
432.3063471796896,6
432.3581678345946,5
432.4304162373093,4
432.947158343208,3
433.9307775316807,4
434.8655337525603,3
435.8256010959521,4
436.0178842967535,3
436.5953426204172,4
436.6967708753389,5
437.3979123590031,6
440.332041577939,5
441.0418635375626,4
441.3285490354852,3
442.7210382217265,4
442.7484498611134,3
444.492996721269,2
446.0667940268976,1
446.8980038742782,0
448.4258524229334,1
448.5777540293715,0
450.3841706573796,1
450.6198426778407,2
451.0148899968555,3
451.8611819533544,2
452.6437295583739,1
453.0871318536966,2
453.7012098643043,3
454.752584635477,4
454.9967120334168,3
456.1506321486128,2
457.6686086905444,3
458.2004871046533,2
459.2689969416262,3
461.1578475811443,2
461.2868036439693,1
462.1554767271789,2
463.8695179804307,3
464.5281400956827,2
464.9092565590088,1
466.1774492257705,2
467.0294643118088,3
467.4375844023569,2
469.6518526045067,1
472.1009362951314,0
474.4228459137308,1
475.4707681335898,2
475.7651280983986,1
475.8212898652546,2
479.7082129161415,3
479.7943852232858,2
483.0203608430024,3
484.3754827087571,4
484.5425006125113,3
486.6293773797011,2
487.5234711662757,3
487.9296995082275,2
488.5035949664408,3
488.678889612637,2
491.3194399563117,1
492.3115673384581,2
493.3381325629608,1
493.453879775652,2
493.5582448405594,1
495.7601765151591,0
495.9081636024022,1
496.1712605928992,0
497.5226655026296,1
499.7493251244815,2
500.2153083290011,3
500.4468649733907,4
500.6641823761095,3
500.773728960998,4
501.1689768940601,3
501.2035456506244,2
501.6532663931663,3
505.4609857545754,2
506.472336117738,1
509.5520155455664,2
509.7738800687695,3
511.1193642147701,2
512.0850763506063,3
512.3725949615388,2
516.8224128211893,1
519.133479509887,2
521.0424679677889,1
521.5651538167915,0
524.1407037017518,1
526.6247419001066,0
529.626106475052,1
530.6828628056268,0
531.8939252106163,1
532.0999528067177,0
534.0003237954372,1
536.330883977956,2
537.7285715002489,3
537.7975454486515,2
538.799616136339,1
539.6782253718087,2
540.3677086041355,1
545.7243920176954,2
546.2032834076613,1
547.0748821331199,0
549.9173585418605,1
550.3480225937949,2
550.5859862353338,3
551.484694502813,4
551.784403851092,5
552.5915607868121,6
553.581399682482,5
554.4670582670429,4
554.6345584145354,5
557.1091081875821,6
557.2561901014874,5
557.6257613569263,6
558.3723821885569,5
558.4344608976736,4
559.3986742452399,3
559.640135027429,2
562.0207493655339,3
562.0691926109052,2
562.515325908766,3
563.745984519335,4
564.2806636249907,3
565.2369909107653,2
565.3694577448765,1
565.4075731516742,2
565.8468346709558,1
566.1465180090624,2
566.8090742355874,3
567.1702944394812,2
567.3162521462265,1
568.0327335924018,2
568.0830954568108,3
568.5237480695661,4
568.6832660218818,3
568.7464104669418,2
568.9895753433419,3
569.2688810357159,4
569.612646401702,5
569.7266733285263,4
570.1591348785606,3
571.8112174828518,4
571.9803723901161,3
572.4486569947456,4
573.3783093350141,5
575.352250497435,6
575.5114753034368,5
576.3984349519525,4
576.4399339865056,3
576.7010279545789,2
577.8852390253916,1
580.3784184172739,2
580.6211410750668,1
582.1292056479963,2
582.2715512177045,3
582.3972036340272,4
582.443639854579,3
582.9113733692475,2
583.0090255161173,3
590.9834010446489,4
591.7690174116341,5
592.5234145555066,6
592.7406959682523,5
592.9338350992265,4
593.8138374100974,3
594.7404172826811,2
597.2613569611899,3
597.5898377009888,2
598.7057202025744,1
600.5730429286345,2
602.6307801167296,3
603.0596977630823,4
604.7223807028755,5
604.8724192476269,4
605.7795334994788,3
607.3272915013322,2
607.5494672742574,3
607.9590740847308,2
608.0751357638086,3
610.7452791117904,4
610.9395334371397,3
611.1905609626069,2
611.3917631469083,3
611.6857349985708,4
612.331011353459,3
613.1933050743604,2
616.4100066343448,1
617.1640067111255,2
619.8580381876654,3
621.6079778652487,4
623.1024810691655,5
623.1701334235325,4
623.4388874866706,3
624.2665669344241,2
624.489548749391,3
624.7565859974025,2
625.0570824917388,3
625.8418001606782,2
626.0151967239079,3
626.296466276108,4
629.6614427790537,5
629.8426131605949,6
629.8582502672235,5
630.8735711262474,6
631.1018012685366,5
631.6841531140677,4
632.0973489807767,5
632.3462950242825,6
632.4989460158995,7
632.6180473198962,6
633.0848964274334,5
634.497641762884,6
634.5350034598142,5
634.7455962586206,4
635.1728516428901,3
635.1813099579122,2
636.0040937250642,1
636.7309363605871,2
640.9889660767793,1
642.0678378142283,2
645.5636526646468,1
646.8278210368391,2
649.7208046598029,3
649.9250702597338,2
653.2350738684473,1
654.7159533253204,2
658.5931857025308,3
659.0525373916082,2
659.1882465078196,3
659.4538184841618,4
659.7407790112463,3
659.7961080495094,4
660.3669071425826,3
660.924877468661,2
662.2647334520929,1
665.5267323655225,2
665.8154415561005,3
665.9355541818018,2
666.6121011452072,1
667.2999922422815,2
669.0439334001243,1
669.0783761535037,2
670.1571104189105,1
672.7387547708914,2
672.971234023104,1
673.6236549614425,2
674.1879622709213,1
675.0288975720717,0
680.6838047958419,1
681.8015179339664,2
681.8287385078737,1
682.4807063741411,0
682.4945332989525,1
683.3485624501469,2
685.5641720069578,3
688.0211370870489,4
690.0147908129293,5
690.4348508599968,4
690.8231563354076,3
691.2272815657211,4
691.7090537374406,5
691.8409536440371,6
691.9764128166418,5
693.7146693022039,4
694.4029157712439,3
695.959466737905,4
695.9599728085274,3
698.3300406009236,2
699.7997869810632,1
700.7405353374546,2
701.0934004876502,1
701.7243715825974,0
702.8802249050689,1
705.4713509709635,2
705.7913575949727,1
706.7961435828269,2
706.8337498103,3
707.8937035501124,2
708.4202362318375,3
708.9019854466376,2
709.1329678293322,1
710.8488613642113,0
712.4608453959245,1
712.7830195933217,0
712.9793315264764,1
718.518188833803,2
718.7174034399383,1
720.0717959180359,2
720.371375228498,1
721.2955218747563,2
722.6739511158084,1
723.1903686797223,2
724.6374956536241,1
724.7188094676477,0
727.4264105954239,1
727.7702195680259,2
729.4908588328342,3
729.6255890658877,2
730.6020788226755,1
732.1975244837392,2
732.2923532502799,3
732.3834995921626,2
732.4278579679078,3
734.1985131736623,2
734.4732510324113,1
736.8755414657368,2
737.4201852168303,1
739.3983669378852,0
739.8733833553906,1
740.4659598125355,2
740.887404282468,3
742.7386640832935,2
743.5092974803862,1
744.5427966707412,0
745.6523039536563,1
748.4519483609706,2
750.9677852334944,3
752.2062899352447,4
753.0810595761845,5
753.2568791912532,6
753.2924457155146,5
755.1211051501418,4
755.3181976605827,5
755.9574973151258,4
756.5121061530781,3
756.948586317142,4
757.5905579813326,3
757.6517480929421,2
758.1262192307316,3
758.4302527206796,4
759.6955236158866,3
760.0038534969211,4
760.1352370559821,3
761.1884018854903,4
762.2137752686396,5
763.4283203883524,6
763.4791188735754,7
763.6654644227664,6
764.0901286560186,5
765.0697078234821,4
765.1024524950973,3
765.1399311791658,4
765.6903775887868,3
767.0697453238425,4
767.9485684504875,3
769.0368096129919,2
769.4395755008256,1
770.0177185502047,2
770.2045679044303,1
770.930950165977,2
771.0148955257962,1
773.2256895242203,0
773.5285474574362,1
774.534323143895,2
774.7179758154041,1
777.2465908042943,0
779.0297320643976,1
781.8777320001564,0
781.908106712217,1
782.0366284660735,2
783.8780801630857,3
784.1984334729234,2
786.486666718966,3
787.4066258092628,2
788.8571759804939,1
788.8904130671864,2
789.4079902950147,3
789.4267707554235,2
793.7022830426275,3
793.9403368891068,2
796.267791368471,1
796.8829410345611,2
796.8858930107358,1
798.2648366996327,0
804.4674218991348,1
806.4010726555128,2
807.2489841787504,1
811.8965251806419,2
813.3983231187708,3
814.0182111349726,2
815.4291873393922,3
815.823191737822,2
816.3306391517774,1
817.9569482030943,2
821.3089600145679,3
821.9265997620449,4
821.974512001476,5
822.2294326984455,4
822.3448434428893,3
822.4205684805718,2
823.7705810820556,3
825.7004206301485,2
828.7217062808563,3
829.9428890562878,4
830.4497512327138,3
830.7030132981439,2
832.8726735529384,3
833.3490514129763,2
833.4241812119378,1
834.8936107184404,0
835.1389780471214,1
838.2747556864966,0
838.5151708889493,1
838.9114246553055,0
839.5383065159917,1
840.1890723059744,0
840.6434052180933,1
841.1621195307355,0
841.550117069327,1
844.4109546225696,2
844.9676890739564,1
852.8924860318513,0
856.2633443594931,1
857.4733152378324,2
858.388266466813,1
861.8308935512896,2
862.4658289803706,3
864.3056887422327,2
864.4042652044466,1
866.9837294081044,2
867.6853782777172,1
868.3073253512958,2
869.0801527327496,3
870.6640789402967,4
871.7372437231278,5
872.051922649861,4
873.5822660926523,3
874.2029511834237,4
875.5473865481888,3
876.2822967394255,2
876.7938348173054,3
876.9538492805616,4
877.2456626213211,3
877.7294077539414,2
878.000991570415,1
880.2245468853615,2
881.0252340695899,1
881.8211533061516,0
886.0478298149351,1
888.2200662859476,2
888.2780637330486,1
891.433693104442,2
892.4783307798598,1
893.9547862917309,2
894.827186694047,1
900.1431483816142,2
901.7318739639046,1
904.2877404398657,0
904.8464695505364,1
906.0637809817561,2
907.0207860666943,1
907.3582804111873,0
909.1614922292468,1
909.5561583437366,2
913.7267015001954,1
913.9472841548572,0
914.6251722542992,1
922.1812281550388,2
922.8836017775461,3
923.3629469336867,2
926.1213517999468,1
926.216859003231,2
927.1205083173631,3
928.8351250876979,4
929.0082889252317,3
929.3170679294849,4
930.7970772594788,3
930.8064514742393,2
931.0510351075344,1
935.3009990342001,0
936.0959425839995,1
936.4661273215928,2
936.6523241025697,1
937.7203212909341,2
940.0750108777825,1
941.9841067424568,2
942.5533408409731,3
943.2361922096667,2
944.631788682925,1
947.3276899781512,2
950.1121803793245,1
952.4420811850924,2
953.7575403598746,3
954.0603344832374,4
954.1345042715689,3
954.2646550118635,2
954.7508394749415,1
954.8174534931285,2
955.8158896249511,3
956.0243616135659,2
956.9449373859667,3
957.3251832665121,2
959.0443337230497,3
959.0978476749515,2
959.6242048412855,3
960.2704472443596,2
960.3984117569938,1
960.6583354224369,2
960.9034295410102,1
963.0519008628867,0
965.9572494377021,1
967.8376525096165,0
968.6781003052716,1
970.3103762187598,2
970.8287565302277,3
971.4015075196319,2
974.004418214649,3
974.038725586045,4
975.2687680764507,3
975.577086754912,2
975.6168529301799,3
976.3473257297651,2
976.6402555464506,3
976.6489955934715,2
976.9610544060008,3
978.2247747965863,2
979.6593151228301,3
979.823170625358,2
980.2609734084905,3
980.327261847598,4
981.4954692189381,3
982.6549886220927,4
983.0914017367634,5
983.4866789210673,4
985.1218838859056,5
985.6089255636393,6
986.1995384550609,5
986.267437600936,6
987.7469557497125,5
988.056573492292,4
989.8701516891953,3
990.1006284490589,4
991.0580500368135,3
992.3488068764171,2
992.7444166643701,3
994.4128727364542,2
995.049843609159,3
996.9407936999847,4
997.3373171370093,3
997.5932757026828,2
997.8473097160487,3
998.1502142046414,4
998.1634683952656,3
999.762232363625,4
1000,3